<svg width="19" height="11" viewBox="0 0 19 11" fill="none" xmlns="http://www.w3.org/2000/svg">
<path d="M18.8307 9.74855C18.7796 9.66304 18.4637 8.97661 16.9436 7.56576C15.3522 6.0884 15.566 6.32829 17.4827 3.77379C18.6501 2.21805 19.1169 1.26798 18.9708 0.861823C18.8318 0.474669 17.9732 0.576802 17.9732 0.576802L15.1183 0.593428C15.1183 0.593428 14.9069 0.564926 14.7489 0.658745C14.5957 0.751377 14.4971 0.965143 14.4971 0.965143C14.4971 0.965143 14.0447 2.16936 13.4414 3.19306C12.1695 5.35328 11.66 5.46729 11.4522 5.33309C10.9688 5.02076 11.09 4.07662 11.09 3.40682C11.09 1.31311 11.407 0.440229 10.4712 0.214587C10.1601 0.139769 9.93206 0.0898905 9.13756 0.0815773C8.11861 0.070889 7.25524 0.0851401 6.76714 0.323845C6.44174 0.482982 6.19116 0.838071 6.34436 0.85826C6.53319 0.8832 6.96072 0.973456 7.18755 1.28223C7.48088 1.68007 7.47019 2.57551 7.47019 2.57551C7.47019 2.57551 7.63883 5.03976 7.0771 5.34616C6.69113 5.55636 6.16266 5.12764 5.02851 3.16693C4.44778 2.16342 4.00837 1.05302 4.00837 1.05302C4.00837 1.05302 3.92405 0.846384 3.77323 0.735939C3.59034 0.601741 3.33382 0.558988 3.33382 0.558988L0.618998 0.575614C0.618998 0.575614 0.211656 0.58749 0.0620197 0.764441C-0.0709901 0.92239 0.0513314 1.24779 0.0513314 1.24779C0.0513314 1.24779 2.17711 6.22022 4.58317 8.72722C6.79089 11.0252 9.2967 10.8744 9.2967 10.8744H10.432C10.432 10.8744 10.7752 10.8364 10.9498 10.6475C11.1113 10.4742 11.1054 10.1488 11.1054 10.1488C11.1054 10.1488 11.0828 8.62509 11.7906 8.40063C12.4878 8.17974 13.3832 9.87324 14.3321 10.5252C15.0494 11.0181 15.5945 10.91 15.5945 10.91L18.1324 10.8744C18.1324 10.8744 19.4601 10.7924 18.8307 9.74855Z" fill="white"/>
</svg>
